<svg id="Group_22" data-name="Group 22" xmlns="http://www.w3.org/2000/svg" xmlns:xlink="http://www.w3.org/1999/xlink" width="218.771" height="68.26" viewBox="0 0 218.771 68.26">
  <defs>
    <clipPath id="clip-path">
      <path id="Clip_10" data-name="Clip 10" d="M0,68.26H218.771V0H0Z" fill="none"/>
    </clipPath>
  </defs>
  <path id="Fill_1" data-name="Fill 1" d="M7.56,19.729A7.057,7.057,0,0,1,2.1,17.411,8.4,8.4,0,0,1,0,11.577V8.165A8.426,8.426,0,0,1,2.1,2.331,7.036,7.036,0,0,1,7.56,0a7.437,7.437,0,0,1,5.657,2.325A8.239,8.239,0,0,1,15.4,8.165v3.412a8.22,8.22,0,0,1-2.179,5.835A7.451,7.451,0,0,1,7.56,19.729Zm0-17.6A4.413,4.413,0,0,0,3.945,3.819a6.726,6.726,0,0,0-1.35,4.32v3.438a6.768,6.768,0,0,0,1.35,4.346A4.41,4.41,0,0,0,7.56,17.609a4.767,4.767,0,0,0,3.826-1.679A6.551,6.551,0,0,0,12.8,11.577V8.139a6.5,6.5,0,0,0-1.422-4.32A4.766,4.766,0,0,0,7.56,2.134Z" transform="translate(110.369 8.691)" fill="#fff"/>
  <path id="Fill_3" data-name="Fill 3" d="M14.448,0V12.736a6.184,6.184,0,0,1-2.055,4.939A7.8,7.8,0,0,1,7.1,19.453a7.36,7.36,0,0,1-5.11-1.785A6.287,6.287,0,0,1,0,12.736V0H2.6V12.736A4.624,4.624,0,0,0,3.853,16.18,4.416,4.416,0,0,0,7.1,17.425,4.8,4.8,0,0,0,10.53,16.18a4.5,4.5,0,0,0,1.324-3.444V0Z" transform="translate(128.765 8.968)" fill="#fff"/>
  <path id="Fill_5" data-name="Fill 5" d="M2.647,19.177H0L6.915,0H9.14L15.91,19.175H13.263l-1.687-4.939H4.36L2.647,19.176ZM7.968,3.833,5.11,12.064h5.729L8.047,3.833H7.968Z" transform="translate(145.213 8.968)" fill="#fff"/>
  <path id="Fill_7" data-name="Fill 7" d="M2.6,17.148h9.351v2.028H0V0H2.6Z" transform="translate(164.122 8.967)" fill="#fff"/>
  <path id="Clip_10-2" data-name="Clip 10" d="M0,68.26H218.771V0H0Z" fill="none"/>
  <g id="Group_22-2" data-name="Group 22" clip-path="url(#clip-path)">
    <path id="Fill_9" data-name="Fill 9" d="M0,19.176H2.607V0H0Z" transform="translate(179.069 8.968)" fill="#fff"/>
    <path id="Fill_11" data-name="Fill 11" d="M15.159,2.042H8.837V19.177H6.242V2.042H0V0H15.159Z" transform="translate(184.676 8.967)" fill="#fff"/>
    <path id="Fill_12" data-name="Fill 12" d="M7.968,9.746l5-9.746h2.964L9.206,12.433v6.743H6.624V12.235L0,0H2.963Z" transform="translate(202.835 8.968)" fill="#fff"/>
    <path id="Fill_13" data-name="Fill 13" d="M10.471,10.286H2.6v6.862h9.219v2.028H0V0H11.669V2.041H2.6v6.2h7.876Z" transform="translate(110.869 32.693)" fill="#fff"/>
    <path id="Fill_14" data-name="Fill 14" d="M13.275,15.78,17.753,8.3h3.135L14.8,17.808,27.252,40.4,13.328,19.863l-4.61,7.612H5.584L11.8,17.808S5.292,7.5,3.948,5.378A9.282,9.282,0,0,0,0,1.771L2.364,0S4.052.687,6.312,4.376c1.319,2.153,6.963,11.4,6.963,11.4" transform="translate(121.049 24.394)" fill="#fff"/>
    <path id="Fill_15" data-name="Fill 15" d="M14.369,13.315l.026.079a5.757,5.757,0,0,1-1.9,4.517,7.246,7.246,0,0,1-5.15,1.818,6.762,6.762,0,0,1-5.3-2.305A8.476,8.476,0,0,1,0,11.576V8.165A8.5,8.5,0,0,1,2.048,2.311,6.754,6.754,0,0,1,7.349,0a7.442,7.442,0,0,1,5.176,1.732A5.72,5.72,0,0,1,14.4,6.321l-.026.079H11.88a4.281,4.281,0,0,0-1.185-3.187A4.558,4.558,0,0,0,7.349,2.041,4.085,4.085,0,0,0,3.886,3.793,7.122,7.122,0,0,0,2.6,8.139v3.437a7.168,7.168,0,0,0,1.291,4.373A4.085,4.085,0,0,0,7.349,17.7a4.572,4.572,0,0,0,3.346-1.166,4.31,4.31,0,0,0,1.185-3.22Z" transform="translate(144.778 32.417)" fill="#fff"/>
    <path id="Fill_16" data-name="Fill 16" d="M0,19.176H2.607V0H0Z" transform="translate(163.219 32.693)" fill="#fff"/>
    <path id="Fill_17" data-name="Fill 17" d="M15.159,2.042H8.837V19.177H6.242V2.042H0V0H15.159Z" transform="translate(169.827 32.692)" fill="#fff"/>
    <path id="Fill_18" data-name="Fill 18" d="M10.471,10.286H2.6v6.862h9.219v2.028H0V0H11.669V2.041H2.6v6.2h7.876Z" transform="translate(188.985 32.693)" fill="#fff"/>
    <path id="Fill_19" data-name="Fill 19" d="M10.96,14.619a2.889,2.889,0,0,0-.935-2.187,7.812,7.812,0,0,0-3.293-1.5A10.957,10.957,0,0,1,2.169,8.8,4.478,4.478,0,0,1,.529,5.255,4.726,4.726,0,0,1,2.294,1.5,6.828,6.828,0,0,1,6.877,0,6.692,6.692,0,0,1,11.7,1.719a5.2,5.2,0,0,1,1.745,4.01l-.039.079H10.934a3.539,3.539,0,0,0-1.14-2.7A4.1,4.1,0,0,0,6.877,2.041a4,4,0,0,0-2.785.883,2.954,2.954,0,0,0-.968,2.291A2.559,2.559,0,0,0,4.184,7.3,9.766,9.766,0,0,0,7.628,8.771a9.778,9.778,0,0,1,4.412,2.213,4.814,4.814,0,0,1,1.515,3.609,4.48,4.48,0,0,1-1.824,3.727A7.571,7.571,0,0,1,6.97,19.729a8.1,8.1,0,0,1-4.906-1.554A4.74,4.74,0,0,1,0,14.013l.027-.079H2.5a3.222,3.222,0,0,0,1.37,2.786,5.183,5.183,0,0,0,3.1.981,4.656,4.656,0,0,0,2.917-.83,2.7,2.7,0,0,0,1.073-2.252" transform="translate(203.799 32.417)" fill="#fff"/>
    <path id="Fill_20" data-name="Fill 20" d="M.536,55.581h0a.487.487,0,0,1-.207-.045.492.492,0,0,1-.291-.45L0,.5A.494.494,0,0,1,.834.135L40.629,37.5a.494.494,0,0,1-.287.852L17.923,40.728.858,55.461A.5.5,0,0,1,.536,55.581ZM5.953,13.1l.023,30.094,9.354-8.076A.487.487,0,0,1,15.6,35l12.292-1.3Z" transform="translate(58.885 12.679)" fill="#fff"/>
    <path id="Fill_21" data-name="Fill 21" d="M39.879,59.047A.167.167,0,0,1,39.766,59l-8.839-8.3A25.623,25.623,0,0,1,15.62,2.044,25.625,25.625,0,0,1,40.033,46.828l.008,12.056a.163.163,0,0,1-.1.15A.159.159,0,0,1,39.879,59.047ZM25.607,6.075h0a19.556,19.556,0,1,0,.051,39.112,19.556,19.556,0,0,0-.051-39.112Z" transform="translate(0 0)" fill="#fff"/>
  </g>
</svg>
